StartTime:	963753965
EndTime:	963841513
TotalTime:	87.548
Iteration 0
HW:	CPU	TSS:	0.468443	AT:	0.468311	#T:	4
Iteration 1
HW:	CPU	TSS:	0.515725	AT:	0.520976	#T:	4
Iteration 2
HW:	CPU	TSS:	0.533698	AT:	0.538545	#T:	4
Iteration 3
HW:	CPU	TSS:	0.543155	AT:	0.547321	#T:	4
Iteration 4
HW:	CPU	TSS:	0.548999	AT:	0.552595	#T:	4
Iteration 5
HW:	CPU	TSS:	0.552962	AT:	0.556107	#T:	4
Iteration 6
HW:	CPU	TSS:	0.555832	AT:	0.55862	#T:	4
Iteration 7
HW:	CPU	TSS:	0.558003	AT:	0.560503	#T:	4
Iteration 8
HW:	CPU	TSS:	0.559701	AT:	0.561966	#T:	4
Iteration 9
HW:	CPU	TSS:	0.561068	AT:	0.563137	#T:	4
Iteration 10
HW:	CPU	TSS:	0.562191	AT:	0.573674	#T:	4
Iteration 11
HW:	CPU	TSS:	0.563132	AT:	0.573679	#T:	4
Iteration 12
HW:	CPU	TSS:	0.563929	AT:	0.573677	#T:	4
Iteration 13
HW:	CPU	TSS:	0.564614	AT:	0.57368	#T:	4
Iteration 14
HW:	CPU	TSS:	0.56521	AT:	0.573679	#T:	4
Iteration 15
HW:	CPU	TSS:	0.56573	AT:	0.573678	#T:	4
Iteration 16
HW:	CPU	TSS:	0.566192	AT:	0.573678	#T:	4
Iteration 17
HW:	CPU	TSS:	0.566603	AT:	0.573676	#T:	4
Iteration 18
HW:	CPU	TSS:	0.566969	AT:	0.573674	#T:	4
Iteration 19
HW:	CPU	TSS:	0.5673	AT:	0.573673	#T:	4
Iteration 20
HW:	CPU	TSS:	0.567601	AT:	0.573673	#T:	4
Iteration 21
HW:	CPU	TSS:	0.567873	AT:	0.573668	#T:	4
Iteration 22
HW:	CPU	TSS:	0.568123	AT:	0.57367	#T:	4
Iteration 23
HW:	CPU	TSS:	0.568353	AT:	0.573672	#T:	4
Iteration 24
HW:	CPU	TSS:	0.568566	AT:	0.573676	#T:	4
Iteration 25
HW:	CPU	TSS:	0.568762	AT:	0.573681	#T:	4
Iteration 26
HW:	CPU	TSS:	0.568942	AT:	0.573679	#T:	4
Iteration 27
HW:	CPU	TSS:	0.56911	AT:	0.573679	#T:	4
Iteration 28
HW:	CPU	TSS:	0.569266	AT:	0.573682	#T:	4
Iteration 29
HW:	CPU	TSS:	0.569413	AT:	0.573686	#T:	4
Iteration 30
HW:	CPU	TSS:	0.56955	AT:	0.573686	#T:	4
Iteration 31
HW:	CPU	TSS:	0.569678	AT:	0.573692	#T:	4
Iteration 32
HW:	CPU	TSS:	0.5698	AT:	0.573693	#T:	4
Iteration 33
HW:	CPU	TSS:	0.569913	AT:	0.573692	#T:	4
Iteration 34
HW:	CPU	TSS:	0.57002	AT:	0.57369	#T:	4
Iteration 35
HW:	CPU	TSS:	0.570122	AT:	0.573688	#T:	4
Iteration 36
HW:	CPU	TSS:	0.570218	AT:	0.573691	#T:	4
Iteration 37
HW:	CPU	TSS:	0.570308	AT:	0.573689	#T:	4
Iteration 38
HW:	CPU	TSS:	0.570394	AT:	0.573691	#T:	4
Iteration 39
HW:	CPU	TSS:	0.570475	AT:	0.573686	#T:	4
Iteration 40
HW:	CPU	TSS:	0.570553	AT:	0.573685	#T:	4
Iteration 41
HW:	CPU	TSS:	0.570627	AT:	0.573683	#T:	4
Iteration 42
HW:	CPU	TSS:	0.570698	AT:	0.573682	#T:	4
Iteration 43
HW:	CPU	TSS:	0.570766	AT:	0.573684	#T:	4
Iteration 44
HW:	CPU	TSS:	0.570829	AT:	0.573679	#T:	4
Iteration 45
HW:	CPU	TSS:	0.570891	AT:	0.573678	#T:	4
Iteration 46
HW:	CPU	TSS:	0.57095	AT:	0.573675	#T:	4
Iteration 47
HW:	CPU	TSS:	0.571007	AT:	0.573678	#T:	4
Iteration 48
HW:	CPU	TSS:	0.571061	AT:	0.573679	#T:	4
Iteration 49
HW:	CPU	TSS:	0.571114	AT:	0.573683	#T:	4
