StartTime:	962921073
EndTime:	962937136
TotalTime:	16.063
Iteration 0
HW:	GPU	TSS:	3.10922	AT:	3.10863	#T:	1
Iteration 1
HW:	GPU	TSS:	3.10662	AT:	3.10623	#T:	1
Iteration 2
HW:	GPU	TSS:	3.11183	AT:	3.11158	#T:	1
Iteration 3
HW:	GPU	TSS:	3.11202	AT:	3.11184	#T:	1
Iteration 4
HW:	GPU	TSS:	3.11274	AT:	3.11261	#T:	1
Iteration 5
HW:	GPU	TSS:	3.11369	AT:	3.11357	#T:	1
Iteration 6
HW:	GPU	TSS:	3.11359	AT:	3.11349	#T:	1
Iteration 7
HW:	GPU	TSS:	3.11454	AT:	3.11445	#T:	1
Iteration 8
HW:	GPU	TSS:	3.11483	AT:	3.11476	#T:	1
Iteration 9
HW:	GPU	TSS:	3.11456	AT:	3.1145	#T:	1
Iteration 10
HW:	GPU	TSS:	3.11475	AT:	3.1153	#T:	1
Iteration 11
HW:	GPU	TSS:	3.11479	AT:	3.11644	#T:	1
Iteration 12
HW:	GPU	TSS:	3.11474	AT:	3.11562	#T:	1
Iteration 13
HW:	GPU	TSS:	3.11493	AT:	3.1161	#T:	1
Iteration 14
HW:	GPU	TSS:	3.11406	AT:	3.11473	#T:	1
Iteration 15
HW:	GPU	TSS:	3.11448	AT:	3.11496	#T:	1
Iteration 16
HW:	GPU	TSS:	3.11466	AT:	3.11543	#T:	1
Iteration 17
HW:	GPU	TSS:	3.11469	AT:	3.11483	#T:	1
Iteration 18
HW:	GPU	TSS:	3.11479	AT:	3.11476	#T:	1
Iteration 19
HW:	GPU	TSS:	3.11464	AT:	3.11474	#T:	1
Iteration 20
HW:	GPU	TSS:	3.1146	AT:	3.11445	#T:	1
Iteration 21
HW:	GPU	TSS:	3.11489	AT:	3.11502	#T:	1
Iteration 22
HW:	GPU	TSS:	3.11496	AT:	3.11527	#T:	1
Iteration 23
HW:	GPU	TSS:	3.11514	AT:	3.11546	#T:	1
Iteration 24
HW:	GPU	TSS:	3.11508	AT:	3.11663	#T:	1
Iteration 25
HW:	GPU	TSS:	3.11502	AT:	3.1159	#T:	1
Iteration 26
HW:	GPU	TSS:	3.11521	AT:	3.11615	#T:	1
Iteration 27
HW:	GPU	TSS:	3.11503	AT:	3.11564	#T:	1
Iteration 28
HW:	GPU	TSS:	3.11504	AT:	3.11553	#T:	1
Iteration 29
HW:	GPU	TSS:	3.11515	AT:	3.11617	#T:	1
Iteration 30
HW:	GPU	TSS:	3.11119	AT:	3.10448	#T:	1
Iteration 31
HW:	GPU	TSS:	3.1115	AT:	3.1045	#T:	1
Iteration 32
HW:	GPU	TSS:	3.11168	AT:	3.10459	#T:	1
Iteration 33
HW:	GPU	TSS:	3.11161	AT:	3.10358	#T:	1
Iteration 34
HW:	GPU	TSS:	3.11174	AT:	3.10386	#T:	1
Iteration 35
HW:	GPU	TSS:	3.11184	AT:	3.10404	#T:	1
Iteration 36
HW:	GPU	TSS:	3.11182	AT:	3.10314	#T:	1
Iteration 37
HW:	GPU	TSS:	3.11194	AT:	3.10375	#T:	1
Iteration 38
HW:	GPU	TSS:	3.11203	AT:	3.10374	#T:	1
Iteration 39
HW:	GPU	TSS:	3.11219	AT:	3.10379	#T:	1
Iteration 40
HW:	GPU	TSS:	3.11232	AT:	3.11587	#T:	1
Iteration 41
HW:	GPU	TSS:	3.11242	AT:	3.11538	#T:	1
Iteration 42
HW:	GPU	TSS:	3.11247	AT:	3.1151	#T:	1
Iteration 43
HW:	GPU	TSS:	3.11247	AT:	3.11542	#T:	1
Iteration 44
HW:	GPU	TSS:	3.11249	AT:	3.11512	#T:	1
Iteration 45
HW:	GPU	TSS:	3.1126	AT:	3.11535	#T:	1
Iteration 46
HW:	GPU	TSS:	3.11252	AT:	3.11509	#T:	1
Iteration 47
HW:	GPU	TSS:	3.11264	AT:	3.11532	#T:	1
Iteration 48
HW:	GPU	TSS:	3.11266	AT:	3.11513	#T:	1
Iteration 49
HW:	GPU	TSS:	3.11262	AT:	3.11432	#T:	1
