StartTime:	1240669336
EndTime:	1240705343
TotalTime:	36.007
Iteration 0
HW:	CPU	TSS:	0.648247	AT:	0.647983	#T:	0	DTSS:	1542622
Iteration 1
HW:	CPU	TSS:	0.85084	AT:	0.942793	#T:	1	DTSS:	2350618
Iteration 2
HW:	CPU	TSS:	0.807542	AT:	0.872846	#T:	1	DTSS:	3714976
Iteration 3
HW:	CPU	TSS:	0.78823	AT:	0.8385	#T:	1	DTSS:	5074663
Iteration 4
HW:	CPU	TSS:	0.777102	AT:	0.817912	#T:	1	DTSS:	6434160
Iteration 5
HW:	CPU	TSS:	0.76982	AT:	0.804155	#T:	1	DTSS:	7794027
Iteration 6
HW:	CPU	TSS:	0.764718	AT:	0.794343	#T:	1	DTSS:	9153704
Iteration 7
HW:	CPU	TSS:	0.760936	AT:	0.786984	#T:	1	DTSS:	10513369
Iteration 8
HW:	CPU	TSS:	0.758017	AT:	0.781258	#T:	1	DTSS:	11873080
Iteration 9
HW:	CPU	TSS:	0.755711	AT:	0.776689	#T:	1	DTSS:	13232578
Iteration 10
HW:	CPU	TSS:	0.753822	AT:	0.785434	#T:	1	DTSS:	14592313
Iteration 11
HW:	GPU	TSS:	0.752256	AT:	0.735219	#T:	1	DTSS:	15952023
Iteration 12
HW:	GPU	TSS:	0.812742	AT:	2.97626	#T:	1	DTSS:	15995240
Iteration 13
HW:	GPU	TSS:	0.872925	AT:	5.24003	#T:	1	DTSS:	16038024
Iteration 14
HW:	GPU	TSS:	0.932788	AT:	7.50298	#T:	1	DTSS:	16080822
Iteration 15
HW:	GPU	TSS:	0.992334	AT:	9.76698	#T:	1	DTSS:	16123603
Iteration 16
HW:	GPU	TSS:	1.05156	AT:	12.0283	#T:	1	DTSS:	16166438
Iteration 17
HW:	GPU	TSS:	1.11054	AT:	14.3448	#T:	1	DTSS:	16208275
Iteration 18
HW:	GPU	TSS:	1.16925	AT:	16.681	#T:	1	DTSS:	16249773
Iteration 19
HW:	GPU	TSS:	1.22765	AT:	19.0125	#T:	1	DTSS:	16291353
Iteration 20
HW:	GPU	TSS:	1.28575	AT:	21.3461	#T:	1	DTSS:	16332897
Iteration 21
HW:	GPU	TSS:	1.34356	AT:	23.6822	#T:	1	DTSS:	16374397
Iteration 22
HW:	GPU	TSS:	1.40108	AT:	23.7749	#T:	1	DTSS:	16415943
Iteration 23
HW:	GPU	TSS:	1.4583	AT:	23.843	#T:	1	DTSS:	16457516
Iteration 24
HW:	GPU	TSS:	1.51524	AT:	23.9138	#T:	1	DTSS:	16499058
Iteration 25
HW:	GPU	TSS:	1.57189	AT:	23.9835	#T:	1	DTSS:	16540599
Iteration 26
HW:	GPU	TSS:	1.62826	AT:	24.0549	#T:	1	DTSS:	16582156
Iteration 27
HW:	GPU	TSS:	1.68434	AT:	24.0706	#T:	1	DTSS:	16623725
Iteration 28
HW:	GPU	TSS:	1.74014	AT:	24.0656	#T:	1	DTSS:	16665309
Iteration 29
HW:	GPU	TSS:	1.79567	AT:	24.0679	#T:	1	DTSS:	16706850
Iteration 30
HW:	GPU	TSS:	1.85092	AT:	24.0672	#T:	1	DTSS:	16748405
Iteration 31
HW:	GPU	TSS:	1.9059	AT:	24.0629	#T:	1	DTSS:	16789980
Iteration 32
HW:	GPU	TSS:	1.9606	AT:	24.0619	#T:	1	DTSS:	16831546
Iteration 33
HW:	GPU	TSS:	2.01504	AT:	24.0622	#T:	1	DTSS:	16873111
Iteration 34
HW:	GPU	TSS:	2.06921	AT:	24.0627	#T:	1	DTSS:	16914643
Iteration 35
HW:	GPU	TSS:	2.12313	AT:	24.0675	#T:	1	DTSS:	16956103
Iteration 36
HW:	GPU	TSS:	2.17678	AT:	24.072	#T:	1	DTSS:	16997581
Iteration 37
HW:	GPU	TSS:	2.23017	AT:	24.0783	#T:	1	DTSS:	17039042
Iteration 38
HW:	GPU	TSS:	2.2833	AT:	24.0834	#T:	1	DTSS:	17080538
Iteration 39
HW:	GPU	TSS:	2.33618	AT:	24.089	#T:	1	DTSS:	17121984
Iteration 40
HW:	GPU	TSS:	2.38879	AT:	24.0932	#T:	1	DTSS:	17163467
Iteration 41
HW:	GPU	TSS:	2.44115	AT:	24.0962	#T:	1	DTSS:	17204989
Iteration 42
HW:	GPU	TSS:	2.49317	AT:	24.0637	#T:	1	DTSS:	17247121
Iteration 43
HW:	GPU	TSS:	2.54483	AT:	23.9921	#T:	1	DTSS:	17289963
Iteration 44
HW:	GPU	TSS:	2.59623	AT:	23.9172	#T:	1	DTSS:	17332831
Iteration 45
HW:	GPU	TSS:	2.64736	AT:	23.8355	#T:	1	DTSS:	17375808
Iteration 46
HW:	GPU	TSS:	2.69823	AT:	23.7507	#T:	1	DTSS:	17418801
Iteration 47
HW:	GPU	TSS:	2.74887	AT:	23.6675	#T:	1	DTSS:	17461746
Iteration 48
HW:	GPU	TSS:	2.79925	AT:	23.5844	#T:	1	DTSS:	17504719
Iteration 49
HW:	GPU	TSS:	2.84938	AT:	23.5001	#T:	1	DTSS:	17547668
Iteration 50
HW:	GPU	TSS:	2.89927	AT:	23.4158	#T:	1	DTSS:	17590647
Iteration 51
HW:	GPU	TSS:	2.94892	AT:	23.3383	#T:	1	DTSS:	17633553
Iteration 52
HW:	GPU	TSS:	2.99833	AT:	23.2943	#T:	1	DTSS:	17676484
Iteration 53
HW:	GPU	TSS:	3.04751	AT:	23.29	#T:	1	DTSS:	17719403
Iteration 54
HW:	GPU	TSS:	3.09644	AT:	23.2876	#T:	1	DTSS:	17762314
Iteration 55
HW:	GPU	TSS:	3.14514	AT:	23.2855	#T:	1	DTSS:	17805265
Iteration 56
HW:	GPU	TSS:	3.19358	AT:	23.2829	#T:	1	DTSS:	17848306
Iteration 57
HW:	GPU	TSS:	3.24181	AT:	23.2833	#T:	1	DTSS:	17891241
Iteration 58
HW:	GPU	TSS:	3.28981	AT:	23.2873	#T:	1	DTSS:	17934144
Iteration 59
HW:	GPU	TSS:	3.33759	AT:	23.2887	#T:	1	DTSS:	17977065
Iteration 60
HW:	GPU	TSS:	3.38513	AT:	23.2907	#T:	1	DTSS:	18020013
Iteration 61
HW:	GPU	TSS:	3.43248	AT:	23.2976	#T:	1	DTSS:	18062722
Iteration 62
HW:	GPU	TSS:	3.47984	AT:	23.3734	#T:	1	DTSS:	18104297
Iteration 63
HW:	GPU	TSS:	3.52698	AT:	23.4516	#T:	1	DTSS:	18145824
Iteration 64
HW:	GPU	TSS:	3.57391	AT:	23.5289	#T:	1	DTSS:	18187368
Iteration 65
HW:	GPU	TSS:	3.62062	AT:	23.6061	#T:	1	DTSS:	18228931
Iteration 66
HW:	GPU	TSS:	3.66711	AT:	23.6863	#T:	1	DTSS:	18270536
Iteration 67
HW:	GPU	TSS:	3.71339	AT:	23.7624	#T:	1	DTSS:	18312111
Iteration 68
HW:	GPU	TSS:	3.75947	AT:	23.8377	#T:	1	DTSS:	18353673
Iteration 69
HW:	GPU	TSS:	3.80533	AT:	23.9127	#T:	1	DTSS:	18395257
Iteration 70
HW:	GPU	TSS:	3.85098	AT:	23.9876	#T:	1	DTSS:	18436865
Iteration 71
HW:	GPU	TSS:	3.89643	AT:	24.0545	#T:	1	DTSS:	18478450
Iteration 72
HW:	GPU	TSS:	3.94168	AT:	24.0551	#T:	1	DTSS:	18520017
Iteration 73
HW:	GPU	TSS:	3.98674	AT:	24.0549	#T:	1	DTSS:	18561548
Iteration 74
HW:	GPU	TSS:	4.03158	AT:	24.0523	#T:	1	DTSS:	18603127
Iteration 75
HW:	GPU	TSS:	4.07623	AT:	24.0522	#T:	1	DTSS:	18644700
Iteration 76
HW:	GPU	TSS:	4.12069	AT:	24.0586	#T:	1	DTSS:	18686195
Iteration 77
HW:	GPU	TSS:	4.16496	AT:	24.0654	#T:	1	DTSS:	18727652
Iteration 78
HW:	GPU	TSS:	4.20903	AT:	24.0675	#T:	1	DTSS:	18769178
Iteration 79
HW:	GPU	TSS:	4.2529	AT:	24.0704	#T:	1	DTSS:	18810710
Iteration 80
HW:	GPU	TSS:	4.29658	AT:	24.0769	#T:	1	DTSS:	18852207
Iteration 81
HW:	GPU	TSS:	4.34008	AT:	24.0837	#T:	1	DTSS:	18893674
Iteration 82
HW:	GPU	TSS:	4.38337	AT:	24.0861	#T:	1	DTSS:	18935199
Iteration 83
HW:	GPU	TSS:	4.42648	AT:	24.0878	#T:	1	DTSS:	18976702
Iteration 84
HW:	GPU	TSS:	4.46543	AT:	23.3941	#T:	1	DTSS:	19035137
Iteration 85
HW:	GPU	TSS:	4.50176	AT:	22.4489	#T:	1	DTSS:	19103639
Iteration 86
HW:	GPU	TSS:	4.53531	AT:	21.3019	#T:	1	DTSS:	19182807
Iteration 87
HW:	GPU	TSS:	4.56898	AT:	20.1796	#T:	1	DTSS:	19260330
Iteration 88
HW:	GPU	TSS:	4.60199	AT:	19.0348	#T:	1	DTSS:	19339479
Iteration 89
HW:	GPU	TSS:	4.63473	AT:	17.8912	#T:	1	DTSS:	19418591
Iteration 90
HW:	GPU	TSS:	4.66754	AT:	16.767	#T:	1	DTSS:	19496364
Iteration 91
HW:	GPU	TSS:	4.69974	AT:	15.6185	#T:	1	DTSS:	19575533
Iteration 92
HW:	GPU	TSS:	4.73148	AT:	14.4599	#T:	1	DTSS:	19655567
Iteration 93
HW:	GPU	TSS:	4.76338	AT:	13.327	#T:	1	DTSS:	19733891
Iteration 94
HW:	GPU	TSS:	4.79466	AT:	12.8686	#T:	1	DTSS:	19813710
Iteration 95
HW:	GPU	TSS:	4.82595	AT:	12.6785	#T:	1	DTSS:	19892446
Iteration 96
HW:	GPU	TSS:	4.85713	AT:	12.6944	#T:	1	DTSS:	19970626
Iteration 97
HW:	GPU	TSS:	4.88764	AT:	12.6556	#T:	1	DTSS:	20050569
Iteration 98
HW:	GPU	TSS:	4.91794	AT:	12.6452	#T:	1	DTSS:	20130383
Iteration 99
HW:	GPU	TSS:	4.94821	AT:	12.6481	#T:	1	DTSS:	20209308
Iteration 100
HW:	GPU	TSS:	4.97824	AT:	12.6287	#T:	1	DTSS:	20288279
Iteration 101
HW:	GPU	TSS:	5.00794	AT:	12.6254	#T:	1	DTSS:	20367658
Iteration 102
HW:	GPU	TSS:	5.03762	AT:	12.6495	#T:	1	DTSS:	20446161
Iteration 103
HW:	GPU	TSS:	5.06672	AT:	12.6236	#T:	1	DTSS:	20526115
Iteration 104
HW:	GPU	TSS:	5.09542	AT:	12.6106	#T:	1	DTSS:	20606756
Iteration 105
HW:	GPU	TSS:	5.12416	AT:	12.5978	#T:	1	DTSS:	20686305
Iteration 106
HW:	GPU	TSS:	5.15281	AT:	12.5836	#T:	1	DTSS:	20765371
Iteration 107
HW:	GPU	TSS:	5.18109	AT:	12.5881	#T:	1	DTSS:	20845015
Iteration 108
HW:	GPU	TSS:	5.20945	AT:	12.6093	#T:	1	DTSS:	20923505
Iteration 109
HW:	GPU	TSS:	5.23735	AT:	12.6004	#T:	1	DTSS:	21002984
Iteration 110
HW:	GPU	TSS:	5.26491	AT:	12.5839	#T:	1	DTSS:	21082983
Iteration 111
HW:	GPU	TSS:	5.29243	AT:	12.5853	#T:	1	DTSS:	21162291
Iteration 112
HW:	GPU	TSS:	5.31954	AT:	12.5592	#T:	1	DTSS:	21242437
Iteration 113
HW:	GPU	TSS:	5.34654	AT:	12.5622	#T:	1	DTSS:	21322204
Iteration 114
HW:	GPU	TSS:	5.37361	AT:	12.5935	#T:	1	DTSS:	21400867
Iteration 115
HW:	NO HW	TSS:	5.40028	AT:	12.5939	#T:	1	DTSS:	21480374
Iteration 116
HW:	GPU	TSS:	5.31558	AT:	11.5177	#T:	1	DTSS:	22010773
Iteration 117
HW:	GPU	TSS:	5.34174	AT:	11.5214	#T:	1	DTSS:	22090188
Iteration 118
HW:	GPU	TSS:	5.36764	AT:	11.5016	#T:	1	DTSS:	22169905
Iteration 119
HW:	GPU	TSS:	5.39348	AT:	11.5068	#T:	1	DTSS:	22249067
Iteration 120
HW:	GPU	TSS:	5.41896	AT:	11.5078	#T:	1	DTSS:	22329008
Iteration 121
HW:	GPU	TSS:	5.44465	AT:	11.5234	#T:	1	DTSS:	22407326
Iteration 122
HW:	GPU	TSS:	5.46973	AT:	11.5246	#T:	1	DTSS:	22487407
Iteration 123
HW:	GPU	TSS:	5.49487	AT:	11.5352	#T:	1	DTSS:	22566503
Iteration 124
HW:	GPU	TSS:	5.52006	AT:	11.5432	#T:	1	DTSS:	22644676
Iteration 125
HW:	GPU	TSS:	5.54478	AT:	11.5448	#T:	1	DTSS:	22724071
Iteration 126
HW:	GPU	TSS:	5.56943	AT:	12.6225	#T:	1	DTSS:	22803064
Iteration 127
HW:	GPU	TSS:	5.59407	AT:	12.64	#T:	1	DTSS:	22881390
Iteration 128
HW:	GPU	TSS:	5.61822	AT:	12.6416	#T:	1	DTSS:	22961027
Iteration 129
HW:	GPU	TSS:	5.64227	AT:	12.6382	#T:	1	DTSS:	23040376
Iteration 130
HW:	GPU	TSS:	5.66639	AT:	12.6632	#T:	1	DTSS:	23118764
Iteration 131
HW:	GPU	TSS:	5.69016	AT:	12.6491	#T:	1	DTSS:	23197944
Iteration 132
HW:	GPU	TSS:	5.71376	AT:	12.6632	#T:	1	DTSS:	23277146
Iteration 133
HW:	GPU	TSS:	5.7372	AT:	12.6614	#T:	1	DTSS:	23356342
Iteration 134
HW:	GPU	TSS:	5.76069	AT:	12.6582	#T:	1	DTSS:	23434696
Iteration 135
HW:	GPU	TSS:	5.78386	AT:	12.6647	#T:	1	DTSS:	23513702
Iteration 136
HW:	GPU	TSS:	5.80717	AT:	12.6835	#T:	1	DTSS:	23591520
Iteration 137
HW:	GPU	TSS:	5.82993	AT:	12.666	#T:	1	DTSS:	23670938
Iteration 138
HW:	GPU	TSS:	5.85255	AT:	12.6697	#T:	1	DTSS:	23750335
Iteration 139
HW:	GPU	TSS:	5.87533	AT:	12.6898	#T:	1	DTSS:	23828458
Iteration 140
HW:	GPU	TSS:	5.89769	AT:	12.6766	#T:	1	DTSS:	23907654
Iteration 141
HW:	GPU	TSS:	5.91985	AT:	12.6729	#T:	1	DTSS:	23987082
Iteration 142
HW:	GPU	TSS:	5.94213	AT:	12.6862	#T:	1	DTSS:	24065448
Iteration 143
HW:	GPU	TSS:	5.96411	AT:	12.6894	#T:	1	DTSS:	24144437
Iteration 144
HW:	GPU	TSS:	5.98593	AT:	12.6784	#T:	1	DTSS:	24223490
Iteration 145
HW:	GPU	TSS:	6.00793	AT:	12.6987	#T:	1	DTSS:	24301234
Iteration 146
HW:	GPU	TSS:	6.02934	AT:	12.6712	#T:	1	DTSS:	24380770
Iteration 147
HW:	GPU	TSS:	6.05059	AT:	12.6676	#T:	1	DTSS:	24460418
Iteration 148
HW:	GPU	TSS:	6.07981	AT:	13.5382	#T:	1	DTSS:	24507351
Iteration 149
HW:	GPU	TSS:	6.11038	AT:	14.6948	#T:	1	DTSS:	24548390
Iteration 150
HW:	GPU	TSS:	6.14085	AT:	15.8682	#T:	1	DTSS:	24589441
Iteration 151
HW:	GPU	TSS:	6.17122	AT:	17.0463	#T:	1	DTSS:	24630475
Iteration 152
HW:	GPU	TSS:	6.20149	AT:	18.2078	#T:	1	DTSS:	24671499
Iteration 153
HW:	GPU	TSS:	6.23166	AT:	19.3788	#T:	1	DTSS:	24712536
Iteration 154
HW:	GPU	TSS:	6.26173	AT:	20.5527	#T:	1	DTSS:	24753535
Iteration 155
HW:	GPU	TSS:	6.2917	AT:	21.7034	#T:	1	DTSS:	24794574
Iteration 156
HW:	GPU	TSS:	6.32158	AT:	22.8846	#T:	1	DTSS:	24835582
Iteration 157
HW:	GPU	TSS:	6.35134	AT:	24.0654	#T:	1	DTSS:	24876627
Iteration 158
HW:	GPU	TSS:	6.38102	AT:	24.3732	#T:	1	DTSS:	24917642
Iteration 159
HW:	GPU	TSS:	6.40512	AT:	23.5397	#T:	1	DTSS:	24980027
Iteration 160
HW:	GPU	TSS:	6.425	AT:	22.3805	#T:	1	DTSS:	25058347
Iteration 161
HW:	GPU	TSS:	6.44457	AT:	21.2076	#T:	1	DTSS:	25137439
Iteration 162
HW:	GPU	TSS:	6.46394	AT:	20.0302	#T:	1	DTSS:	25216812
Iteration 163
HW:	GPU	TSS:	6.48354	AT:	18.8754	#T:	1	DTSS:	25294809
Iteration 164
HW:	GPU	TSS:	6.50269	AT:	17.697	#T:	1	DTSS:	25374116
Iteration 165
HW:	GPU	TSS:	6.5216	AT:	16.514	#T:	1	DTSS:	25453885
Iteration 166
HW:	GPU	TSS:	6.54072	AT:	15.3497	#T:	1	DTSS:	25532361
Iteration 167
HW:	GPU	TSS:	6.55952	AT:	14.1745	#T:	1	DTSS:	25611642
Iteration 168
HW:	GPU	TSS:	6.57814	AT:	12.9944	#T:	1	DTSS:	25691144
Iteration 169
HW:	GPU	TSS:	6.59698	AT:	12.6695	#T:	1	DTSS:	25769376
Iteration 170
HW:	GPU	TSS:	6.61548	AT:	12.657	#T:	1	DTSS:	25848453
Iteration 171
HW:	GPU	TSS:	6.63374	AT:	12.6494	#T:	1	DTSS:	25928046
Iteration 172
HW:	GPU	TSS:	6.65237	AT:	12.6759	#T:	1	DTSS:	26005762
Iteration 173
HW:	GPU	TSS:	6.67048	AT:	12.6549	#T:	1	DTSS:	26085077
Iteration 174
HW:	GPU	TSS:	6.68853	AT:	12.6579	#T:	1	DTSS:	26164203
Iteration 175
HW:	GPU	TSS:	6.70668	AT:	12.6813	#T:	1	DTSS:	26242501
Iteration 176
HW:	GPU	TSS:	6.72448	AT:	12.6691	#T:	1	DTSS:	26321734
Iteration 177
HW:	GPU	TSS:	6.74213	AT:	12.6668	#T:	1	DTSS:	26401167
Iteration 178
HW:	GPU	TSS:	6.75995	AT:	12.6858	#T:	1	DTSS:	26479486
Iteration 179
HW:	GPU	TSS:	6.77752	AT:	12.6749	#T:	1	DTSS:	26558383
Iteration 180
HW:	GPU	TSS:	6.79485	AT:	12.6694	#T:	1	DTSS:	26637815
Iteration 181
HW:	GPU	TSS:	6.81236	AT:	12.6894	#T:	1	DTSS:	26716160
Iteration 182
HW:	GPU	TSS:	6.82952	AT:	12.6641	#T:	1	DTSS:	26795424
Iteration 183
HW:	GPU	TSS:	6.84664	AT:	12.6683	#T:	1	DTSS:	26874477
Iteration 184
HW:	GPU	TSS:	6.86392	AT:	12.6854	#T:	1	DTSS:	26952538
Iteration 185
HW:	GPU	TSS:	6.88084	AT:	12.6732	#T:	1	DTSS:	27031590
Iteration 186
HW:	GPU	TSS:	6.8976	AT:	12.6725	#T:	1	DTSS:	27110868
Iteration 187
HW:	GPU	TSS:	6.91468	AT:	12.7011	#T:	1	DTSS:	27188551
Iteration 188
HW:	GPU	TSS:	6.93125	AT:	12.686	#T:	1	DTSS:	27267800
Iteration 189
HW:	GPU	TSS:	6.94778	AT:	12.6835	#T:	1	DTSS:	27346847
Iteration 190
HW:	GPU	TSS:	6.96452	AT:	12.7087	#T:	1	DTSS:	27424731
Iteration 191
HW:	GPU	TSS:	6.98079	AT:	12.6928	#T:	1	DTSS:	27504065
Iteration 192
HW:	GPU	TSS:	6.99698	AT:	12.6927	#T:	1	DTSS:	27583338
Iteration 193
HW:	GPU	TSS:	7.01335	AT:	12.7063	#T:	1	DTSS:	27661541
Iteration 194
HW:	GPU	TSS:	7.02946	AT:	12.693	#T:	1	DTSS:	27740415
Iteration 195
HW:	GPU	TSS:	7.04539	AT:	12.6911	#T:	1	DTSS:	27819609
Iteration 196
HW:	GPU	TSS:	7.06151	AT:	12.7102	#T:	1	DTSS:	27897697
Iteration 197
HW:	GPU	TSS:	7.07734	AT:	12.69	#T:	1	DTSS:	27976603
Iteration 198
HW:	GPU	TSS:	7.09299	AT:	12.6898	#T:	1	DTSS:	28055871
Iteration 199
HW:	GPU	TSS:	7.10891	AT:	12.7098	#T:	1	DTSS:	28133700
Iteration 200
HW:	GPU	TSS:	7.12447	AT:	12.6929	#T:	1	DTSS:	28212617
Iteration 201
HW:	GPU	TSS:	7.13984	AT:	12.6925	#T:	1	DTSS:	28291966
Iteration 202
HW:	GPU	TSS:	7.15548	AT:	12.7149	#T:	1	DTSS:	28369866
Iteration 203
HW:	GPU	TSS:	7.17072	AT:	12.6989	#T:	1	DTSS:	28449042
Iteration 204
HW:	GPU	TSS:	7.18584	AT:	12.6926	#T:	1	DTSS:	28528333
Iteration 205
HW:	GPU	TSS:	7.20115	AT:	12.7086	#T:	1	DTSS:	28606525
Iteration 206
HW:	GPU	TSS:	7.21623	AT:	12.6967	#T:	1	DTSS:	28685339
Iteration 207
HW:	GPU	TSS:	7.2311	AT:	12.6906	#T:	1	DTSS:	28764645
Iteration 208
HW:	GPU	TSS:	7.24621	AT:	12.7105	#T:	1	DTSS:	28842674
Iteration 209
HW:	GPU	TSS:	7.26102	AT:	12.6928	#T:	1	DTSS:	28921575
Iteration 210
HW:	GPU	TSS:	7.27565	AT:	12.6874	#T:	1	DTSS:	29000840
Iteration 211
HW:	GPU	TSS:	7.29056	AT:	12.7116	#T:	1	DTSS:	29078698
Iteration 212
HW:	GPU	TSS:	7.30503	AT:	12.6889	#T:	1	DTSS:	29157996
Iteration 213
HW:	GPU	TSS:	7.3194	AT:	12.6859	#T:	1	DTSS:	29237376
Iteration 214
HW:	GPU	TSS:	7.33403	AT:	12.7062	#T:	1	DTSS:	29315400
Iteration 215
HW:	GPU	TSS:	7.34828	AT:	12.689	#T:	1	DTSS:	29394641
Iteration 216
HW:	GPU	TSS:	7.3625	AT:	12.6857	#T:	1	DTSS:	29473684
Iteration 217
HW:	GPU	TSS:	7.37696	AT:	12.71	#T:	1	DTSS:	29551485
Iteration 218
HW:	GPU	TSS:	7.39107	AT:	12.6961	#T:	1	DTSS:	29630369
Iteration 219
HW:	GPU	TSS:	7.40498	AT:	12.6887	#T:	1	DTSS:	29709742
Iteration 220
HW:	GPU	TSS:	7.41927	AT:	12.7165	#T:	1	DTSS:	29787293
Iteration 221
HW:	GPU	TSS:	7.43308	AT:	12.6943	#T:	1	DTSS:	29866506
Iteration 222
HW:	GPU	TSS:	7.4468	AT:	12.6951	#T:	1	DTSS:	29945764
Iteration 223
HW:	GPU	TSS:	7.46097	AT:	12.7312	#T:	1	DTSS:	30022920
Iteration 224
HW:	GPU	TSS:	7.47459	AT:	12.7146	#T:	1	DTSS:	30101968
Iteration 225
HW:	GPU	TSS:	7.48792	AT:	12.7036	#T:	1	DTSS:	30181928
Iteration 226
HW:	GPU	TSS:	7.50168	AT:	12.7212	#T:	1	DTSS:	30259889
Iteration 227
HW:	GPU	TSS:	7.51531	AT:	12.7143	#T:	1	DTSS:	30338085
Iteration 228
HW:	GPU	TSS:	7.5286	AT:	12.7081	#T:	1	DTSS:	30417360
Iteration 229
HW:	GPU	TSS:	7.54218	AT:	12.7334	#T:	1	DTSS:	30495179
Iteration 230
HW:	GPU	TSS:	7.55552	AT:	12.7175	#T:	1	DTSS:	30573686
Iteration 231
HW:	GPU	TSS:	7.56837	AT:	12.7022	#T:	1	DTSS:	30653892
Iteration 232
HW:	GPU	TSS:	7.5817	AT:	12.7225	#T:	1	DTSS:	30731885
Iteration 233
HW:	GPU	TSS:	7.59491	AT:	12.7048	#T:	1	DTSS:	30810110
Iteration 234
HW:	GPU	TSS:	7.60782	AT:	12.7032	#T:	1	DTSS:	30889268
Iteration 235
HW:	GPU	TSS:	7.62095	AT:	12.7344	#T:	1	DTSS:	30967281
Iteration 236
HW:	GPU	TSS:	7.63368	AT:	12.7118	#T:	1	DTSS:	31046617
Iteration 237
HW:	GPU	TSS:	7.64629	AT:	12.6895	#T:	1	DTSS:	31126219
Iteration 238
HW:	GPU	TSS:	7.65921	AT:	12.7096	#T:	1	DTSS:	31204261
Iteration 239
HW:	GPU	TSS:	7.67182	AT:	12.689	#T:	1	DTSS:	31283323
Iteration 240
HW:	GPU	TSS:	7.68429	AT:	12.6755	#T:	1	DTSS:	31362700
Iteration 241
HW:	GPU	TSS:	7.69699	AT:	12.708	#T:	1	DTSS:	31440852
Iteration 242
HW:	GPU	TSS:	7.70939	AT:	12.6893	#T:	1	DTSS:	31520002
Iteration 243
HW:	GPU	TSS:	7.72169	AT:	12.6722	#T:	1	DTSS:	31599286
Iteration 244
HW:	GPU	TSS:	7.73423	AT:	12.6895	#T:	1	DTSS:	31677371
Iteration 245
HW:	GPU	TSS:	7.74644	AT:	12.6711	#T:	1	DTSS:	31756511
Iteration 246
HW:	GPU	TSS:	7.75835	AT:	12.6584	#T:	1	DTSS:	31836674
Iteration 247
HW:	GPU	TSS:	7.77051	AT:	12.67	#T:	1	DTSS:	31915550
Iteration 248
HW:	GPU	TSS:	7.78236	AT:	12.6401	#T:	1	DTSS:	31995438
Iteration 249
HW:	GPU	TSS:	7.7944	AT:	12.6431	#T:	1	DTSS:	32074324
Iteration 250
HW:	GPU	TSS:	7.80662	AT:	12.6676	#T:	1	DTSS:	32152180
Iteration 251
HW:	GPU	TSS:	7.81825	AT:	12.6366	#T:	1	DTSS:	32232280
Iteration 252
HW:	GPU	TSS:	7.82987	AT:	12.6248	#T:	1	DTSS:	32312163
Iteration 253
HW:	GPU	TSS:	7.8417	AT:	12.6333	#T:	1	DTSS:	32390937
Iteration 254
HW:	GPU	TSS:	7.85343	AT:	12.619	#T:	1	DTSS:	32469891
Iteration 255
HW:	GPU	TSS:	7.86505	AT:	12.6188	#T:	1	DTSS:	32549053
Iteration 256
HW:	GPU	TSS:	7.877	AT:	12.6604	#T:	1	DTSS:	32626643
Iteration 257
HW:	GPU	TSS:	7.88826	AT:	12.6393	#T:	1	DTSS:	32706832
Iteration 258
HW:	GPU	TSS:	7.89982	AT:	12.658	#T:	1	DTSS:	32785558
Iteration 259
HW:	GPU	TSS:	7.91155	AT:	12.6759	#T:	1	DTSS:	32863332
Iteration 260
HW:	GPU	TSS:	7.92283	AT:	12.6499	#T:	1	DTSS:	32942789
Iteration 261
HW:	GPU	TSS:	7.93419	AT:	12.6696	#T:	1	DTSS:	33021652
Iteration 262
HW:	GPU	TSS:	7.9458	AT:	12.7064	#T:	1	DTSS:	33099252
Iteration 263
HW:	GPU	TSS:	7.95676	AT:	12.6857	#T:	1	DTSS:	33179323
Iteration 264
HW:	GPU	TSS:	7.9679	AT:	12.6834	#T:	1	DTSS:	33258435
Iteration 265
HW:	GPU	TSS:	7.97918	AT:	12.697	#T:	1	DTSS:	33336743
Iteration 266
HW:	GPU	TSS:	7.99006	AT:	12.6613	#T:	1	DTSS:	33416526
Iteration 267
HW:	GPU	TSS:	8.00107	AT:	12.6803	#T:	1	DTSS:	33495533
Iteration 268
HW:	GPU	TSS:	8.01248	AT:	12.7068	#T:	1	DTSS:	33572639
Iteration 269
HW:	GPU	TSS:	8.02327	AT:	12.6798	#T:	1	DTSS:	33652094
Iteration 270
HW:	GPU	TSS:	8.03414	AT:	12.6874	#T:	1	DTSS:	33731070
Iteration 271
HW:	GPU	TSS:	8.04523	AT:	12.7053	#T:	1	DTSS:	33808839
Iteration 272
HW:	GPU	TSS:	8.05575	AT:	12.6667	#T:	1	DTSS:	33888847
Iteration 273
HW:	GPU	TSS:	8.06638	AT:	12.6784	#T:	1	DTSS:	33968167
Iteration 274
HW:	GPU	TSS:	8.07728	AT:	12.6975	#T:	1	DTSS:	34046101
Iteration 275
HW:	GPU	TSS:	8.08817	AT:	12.7058	#T:	1	DTSS:	34123917
Iteration 276
HW:	GPU	TSS:	8.09877	AT:	12.7211	#T:	1	DTSS:	34202730
Iteration 277
HW:	GPU	TSS:	8.10958	AT:	12.742	#T:	1	DTSS:	34280447
Iteration 278
HW:	GPU	TSS:	8.11992	AT:	12.7039	#T:	1	DTSS:	34359952
Iteration 279
HW:	GPU	TSS:	8.13031	AT:	12.7089	#T:	1	DTSS:	34439035
Iteration 280
HW:	GPU	TSS:	8.14103	AT:	12.7335	#T:	1	DTSS:	34516497
Iteration 281
HW:	GPU	TSS:	8.15129	AT:	12.7092	#T:	1	DTSS:	34595760
Iteration 282
HW:	GPU	TSS:	8.16145	AT:	12.7178	#T:	1	DTSS:	34675224
Iteration 283
HW:	GPU	TSS:	8.17193	AT:	12.7413	#T:	1	DTSS:	34753101
Iteration 284
HW:	GPU	TSS:	8.18205	AT:	12.72	#T:	1	DTSS:	34832333
Iteration 285
HW:	GPU	TSS:	8.19216	AT:	12.6994	#T:	1	DTSS:	34911418
Iteration 286
HW:	GPU	TSS:	8.20229	AT:	12.6999	#T:	1	DTSS:	34990208
Iteration 287
HW:	GPU	TSS:	8.21234	AT:	12.6794	#T:	1	DTSS:	35069187
Iteration 288
HW:	GPU	TSS:	8.22234	AT:	12.6873	#T:	1	DTSS:	35148136
Iteration 289
HW:	GPU	TSS:	8.23261	AT:	12.7116	#T:	1	DTSS:	35225774
Iteration 290
HW:	GPU	TSS:	8.24245	AT:	12.6829	#T:	1	DTSS:	35305018
Iteration 291
HW:	GPU	TSS:	8.25206	AT:	12.6695	#T:	1	DTSS:	35385112
Iteration 292
HW:	GPU	TSS:	8.26198	AT:	12.6844	#T:	1	DTSS:	35463649
Iteration 293
HW:	GPU	TSS:	8.2715	AT:	12.6491	#T:	1	DTSS:	35543723
Iteration 294
HW:	GPU	TSS:	8.28128	AT:	12.6564	#T:	1	DTSS:	35622515
Iteration 295
HW:	GPU	TSS:	8.29119	AT:	12.6738	#T:	1	DTSS:	35700531
Iteration 296
HW:	GPU	TSS:	8.30062	AT:	12.6559	#T:	1	DTSS:	35780439
Iteration 297
HW:	GPU	TSS:	8.31023	AT:	12.6562	#T:	1	DTSS:	35859397
Iteration 298
HW:	GPU	TSS:	8.32002	AT:	12.6711	#T:	1	DTSS:	35937430
Iteration 299
HW:	GPU	TSS:	8.3317	AT:	12.8195	#T:	1	DTSS:	36007042
