StartTime:	1239373170
EndTime:	1239432028
TotalTime:	58.858
Iteration 0
HW:	CPU	TSS:	0.252763	AT:	0.252728	#T:	4
Iteration 1
HW:	CPU	TSS:	0.256197	AT:	0.256226	#T:	4
Iteration 2
HW:	CPU	TSS:	0.257325	AT:	0.257354	#T:	4
Iteration 3
HW:	CPU	TSS:	0.257849	AT:	0.257875	#T:	4
Iteration 4
HW:	CPU	TSS:	0.258224	AT:	0.258246	#T:	4
Iteration 5
HW:	CPU	TSS:	0.258437	AT:	0.258456	#T:	4
Iteration 6
HW:	CPU	TSS:	0.258606	AT:	0.258624	#T:	4
Iteration 7
HW:	CPU	TSS:	0.25872	AT:	0.258736	#T:	4
Iteration 8
HW:	CPU	TSS:	0.258826	AT:	0.25884	#T:	4
Iteration 9
HW:	CPU	TSS:	0.258904	AT:	0.258917	#T:	4
Iteration 10
HW:	CPU	TSS:	0.258967	AT:	0.259604	#T:	4
Iteration 11
HW:	GPU	TSS:	0.259029	AT:	0.259604	#T:	1
Iteration 12
HW:	GPU	TSS:	0.278683	AT:	0.544956	#T:	1
Iteration 13
HW:	GPU	TSS:	0.298071	AT:	0.830847	#T:	1
Iteration 14
HW:	GPU	TSS:	0.317196	AT:	1.11669	#T:	1
Iteration 15
HW:	GPU	TSS:	0.336059	AT:	1.40199	#T:	1
Iteration 16
HW:	GPU	TSS:	0.354672	AT:	1.68768	#T:	1
Iteration 17
HW:	GPU	TSS:	0.37304	AT:	1.97355	#T:	1
Iteration 18
HW:	GPU	TSS:	0.391159	AT:	2.25871	#T:	1
Iteration 19
HW:	GPU	TSS:	0.409049	AT:	2.54498	#T:	1
Iteration 20
HW:	GPU	TSS:	0.426702	AT:	2.83076	#T:	1
Iteration 21
HW:	GPU	TSS:	0.444121	AT:	3.116	#T:	1
Iteration 22
HW:	GPU	TSS:	0.461323	AT:	3.11662	#T:	1
Iteration 23
HW:	GPU	TSS:	0.478301	AT:	3.11635	#T:	1
Iteration 24
HW:	GPU	TSS:	0.49506	AT:	3.11572	#T:	1
Iteration 25
HW:	GPU	TSS:	0.511613	AT:	3.11629	#T:	1
Iteration 26
HW:	GPU	TSS:	0.527956	AT:	3.1162	#T:	1
Iteration 27
HW:	GPU	TSS:	0.544098	AT:	3.11619	#T:	1
Iteration 28
HW:	NO HW	TSS:	0.560042	AT:	3.11702	#T:	1
Iteration 29
HW:	GPU	TSS:	0.572123	AT:	2.95759	#T:	1
Iteration 30
HW:	GPU	TSS:	0.587599	AT:	2.95753	#T:	1
Iteration 31
HW:	GPU	TSS:	0.602882	AT:	2.95759	#T:	1
Iteration 32
HW:	GPU	TSS:	0.617989	AT:	2.95754	#T:	1
Iteration 33
HW:	GPU	TSS:	0.632913	AT:	2.95767	#T:	1
Iteration 34
HW:	GPU	TSS:	0.647657	AT:	2.95788	#T:	1
Iteration 35
HW:	GPU	TSS:	0.662235	AT:	2.95818	#T:	1
Iteration 36
HW:	GPU	TSS:	0.676637	AT:	2.95828	#T:	1
Iteration 37
HW:	GPU	TSS:	0.690865	AT:	2.95772	#T:	1
Iteration 38
HW:	GPU	TSS:	0.704935	AT:	2.95754	#T:	1
Iteration 39
HW:	GPU	TSS:	0.718835	AT:	3.11591	#T:	1
Iteration 40
HW:	GPU	TSS:	0.732577	AT:	3.11556	#T:	1
Iteration 41
HW:	GPU	TSS:	0.746167	AT:	3.11594	#T:	1
Iteration 42
HW:	GPU	TSS:	0.759588	AT:	3.11469	#T:	1
Iteration 43
HW:	GPU	TSS:	0.772876	AT:	3.11493	#T:	1
Iteration 44
HW:	GPU	TSS:	0.786011	AT:	3.11515	#T:	1
Iteration 45
HW:	GPU	TSS:	0.798992	AT:	3.11413	#T:	1
Iteration 46
HW:	GPU	TSS:	0.811834	AT:	3.11391	#T:	1
Iteration 47
HW:	GPU	TSS:	0.824531	AT:	3.11388	#T:	1
Iteration 48
HW:	GPU	TSS:	0.837087	AT:	3.11329	#T:	1
Iteration 49
HW:	GPU	TSS:	0.849512	AT:	3.11358	#T:	1
