StartTime:	1217691682
EndTime:	1217722151
TotalTime:	30.469
Iteration 0
HW:	CPU	TSS:	2.07579	AT:	2.07559	#T:	4
Iteration 1
HW:	CPU	TSS:	2.01844	AT:	2.01983	#T:	4
Iteration 2
HW:	CPU	TSS:	2.03012	AT:	2.0312	#T:	4
Iteration 3
HW:	CPU	TSS:	2.0098	AT:	2.01119	#T:	4
Iteration 4
HW:	CPU	TSS:	1.85749	AT:	1.89404	#T:	4
Iteration 5
HW:	CPU	TSS:	1.75286	AT:	1.8063	#T:	4
Iteration 6
HW:	CPU	TSS:	1.69234	AT:	1.74853	#T:	4
Iteration 7
HW:	CPU	TSS:	1.65836	AT:	1.71173	#T:	4
Iteration 8
HW:	CPU	TSS:	1.63639	AT:	1.68593	#T:	4
Iteration 9
HW:	CPU	TSS:	1.62062	AT:	1.66646	#T:	4
Iteration 10
HW:	CPU	TSS:	1.60814	AT:	1.60824	#T:	4
Iteration 11
HW:	CPU	TSS:	1.60991	AT:	1.57477	#T:	4
Iteration 12
HW:	CPU	TSS:	1.61512	AT:	1.53742	#T:	4
Iteration 13
HW:	CPU	TSS:	1.61855	AT:	1.50876	#T:	4
Iteration 14
HW:	CPU	TSS:	1.62311	AT:	1.53519	#T:	4
Iteration 15
HW:	CPU	TSS:	1.63036	AT:	1.57317	#T:	4
Iteration 16
HW:	CPU	TSS:	1.64862	AT:	1.63383	#T:	4
Iteration 17
HW:	CPU	TSS:	1.66637	AT:	1.69239	#T:	4
Iteration 18
HW:	CPU	TSS:	1.67852	AT:	1.73765	#T:	4
Iteration 19
HW:	CPU	TSS:	1.66102	AT:	1.72716	#T:	4
Iteration 20
HW:	CPU	TSS:	1.63789	AT:	1.70593	#T:	4
Iteration 21
HW:	CPU	TSS:	1.63235	AT:	1.6954	#T:	4
Iteration 22
HW:	CPU	TSS:	1.62041	AT:	1.66695	#T:	4
Iteration 23
HW:	CPU	TSS:	1.61203	AT:	1.64455	#T:	4
Iteration 24
HW:	CPU	TSS:	1.60496	AT:	1.62078	#T:	4
Iteration 25
HW:	CPU	TSS:	1.60389	AT:	1.60379	#T:	4
Iteration 26
HW:	CPU	TSS:	1.60696	AT:	1.5721	#T:	4
Iteration 27
HW:	CPU	TSS:	1.60637	AT:	1.52717	#T:	4
Iteration 28
HW:	CPU	TSS:	1.60924	AT:	1.50336	#T:	4
Iteration 29
HW:	CPU	TSS:	1.61179	AT:	1.53367	#T:	4
Iteration 30
HW:	CPU	TSS:	1.61946	AT:	1.59448	#T:	4
Iteration 31
HW:	CPU	TSS:	1.62768	AT:	1.63521	#T:	4
Iteration 32
HW:	CPU	TSS:	1.63897	AT:	1.70627	#T:	4
Iteration 33
HW:	CPU	TSS:	1.64439	AT:	1.7468	#T:	4
Iteration 34
HW:	CPU	TSS:	1.63565	AT:	1.74011	#T:	4
Iteration 35
HW:	CPU	TSS:	1.63025	AT:	1.72851	#T:	4
Iteration 36
HW:	CPU	TSS:	1.6261	AT:	1.70831	#T:	4
Iteration 37
HW:	CPU	TSS:	1.62368	AT:	1.70316	#T:	4
Iteration 38
HW:	CPU	TSS:	1.61985	AT:	1.68241	#T:	4
Iteration 39
HW:	CPU	TSS:	1.61551	AT:	1.65976	#T:	4
Iteration 40
HW:	CPU	TSS:	1.61314	AT:	1.6232	#T:	4
Iteration 41
HW:	CPU	TSS:	1.61437	AT:	1.59671	#T:	4
Iteration 42
HW:	CPU	TSS:	1.61791	AT:	1.56426	#T:	4
Iteration 43
HW:	CPU	TSS:	1.61935	AT:	1.54804	#T:	4
Iteration 44
HW:	CPU	TSS:	1.61976	AT:	1.57334	#T:	4
Iteration 45
HW:	CPU	TSS:	1.62186	AT:	1.59941	#T:	4
Iteration 46
HW:	CPU	TSS:	1.62988	AT:	1.66146	#T:	4
Iteration 47
HW:	CPU	TSS:	1.63632	AT:	1.70847	#T:	4
Iteration 48
HW:	CPU	TSS:	1.64139	AT:	1.75268	#T:	4
Iteration 49
HW:	CPU	TSS:	1.64103	AT:	1.76873	#T:	4
